…
# Loading hits

To load a hits file use the `loadhits` function, which reads in the specified
Arrow file and converts it into a `DataFrame` for easy manipulation.  The
returned DataFrame has one row per hit as well as the file level metadata
described above.

```julia
julia> using DopplerDriftSearchPipelineOutputs

julia> df=loadhits("guppi_59103_05106_TIC424865156_0020.rawspec.0000.arrow")
58410×15 DataFrame
   Row │ id     pkval       pkchan     pkfreq    pkrate       nhits   lochan   ⋯
       │ Int64  Float32     Int64      Float64   Float64      Int64   Int64    ⋯
───────┼────────────────────────────────────────────────────────────────────────
     1 │     1  1075.65       1843519  2246.31    2.28083e-7   29803    184312 ⋯
     2 │     1  1451.67        416959  2250.3    -0.0306125    71318     41656
     3 │     2   146.379       417682  2250.3     0.193881    118964     41726
     4 │     3   218.519       524289  2250.0    -0.010204     57288     52389
     5 │     4   146.379       630896  2249.7    -0.193881    118965     63052 ⋯
     6 │     5  1451.67        631619  2249.7     0.030613     71318     63122
     7 │     6    22.0942      309630  2250.6    -0.0408168      530     30961
   ⋮   │   ⋮        ⋮           ⋮         ⋮           ⋮         ⋮         ⋮    ⋱
 58405 │     5     8.68968  527627956   777.289   2.28083e-7       1  52762795
 58406 │     6     9.49958  527629571   777.285   2.28083e-7       1  52762957 ⋯
 58407 │     7     8.08033  527646953   777.236   0.0102045        2  52764695
 58408 │     1    20.6251   533115565   761.957   2.28083e-7    1600  53311551
 58409 │     2    21.3459   533117436   761.952  -0.010204       467  53311741
 58410 │     3    11.7194   533095332   762.014  -0.010204        51  53309532 ⋯
                                                9 columns and 58397 rows omitted
```
…
